\beamer@endinputifotherversion {3.36pt}
\headcommand {\slideentry {0}{0}{1}{1/1}{}{0}}
\headcommand {\beamer@framepages {1}{1}}
\headcommand {\sectionentry {1}{Introduction}{2}{Introduction}{0}}
\headcommand {\beamer@sectionpages {1}{1}}
\headcommand {\beamer@subsectionpages {1}{1}}
\headcommand {\slideentry {1}{0}{1}{2/3}{}{0}}
\headcommand {\beamer@framepages {2}{3}}
\headcommand {\slideentry {1}{0}{2}{4/5}{}{0}}
\headcommand {\beamer@framepages {4}{5}}
\headcommand {\slideentry {1}{0}{3}{6/11}{}{0}}
\headcommand {\beamer@framepages {6}{11}}
\headcommand {\sectionentry {2}{Approximation Algorithms}{12}{Approximation Algorithms}{0}}
\headcommand {\beamer@sectionpages {2}{11}}
\headcommand {\beamer@subsectionpages {2}{11}}
\headcommand {\slideentry {2}{0}{1}{12/17}{}{0}}
\headcommand {\beamer@framepages {12}{17}}
\headcommand {\slideentry {2}{0}{2}{18/19}{}{0}}
\headcommand {\beamer@framepages {18}{19}}
\headcommand {\slideentry {2}{0}{3}{20/23}{}{0}}
\headcommand {\beamer@framepages {20}{23}}
\headcommand {\slideentry {2}{0}{4}{24/35}{}{0}}
\headcommand {\beamer@framepages {24}{35}}
\headcommand {\slideentry {2}{0}{5}{36/41}{}{0}}
\headcommand {\beamer@framepages {36}{41}}
\headcommand {\slideentry {2}{0}{6}{42/45}{}{0}}
\headcommand {\beamer@framepages {42}{45}}
\headcommand {\sectionentry {3}{Experiments}{46}{Experiments}{0}}
\headcommand {\beamer@sectionpages {12}{45}}
\headcommand {\beamer@subsectionpages {12}{45}}
\headcommand {\slideentry {3}{0}{1}{46/46}{}{0}}
\headcommand {\beamer@framepages {46}{46}}
\headcommand {\slideentry {3}{0}{2}{47/51}{}{0}}
\headcommand {\beamer@framepages {47}{51}}
\headcommand {\slideentry {3}{0}{3}{52/52}{}{0}}
\headcommand {\beamer@framepages {52}{52}}
\headcommand {\beamer@partpages {1}{52}}
\headcommand {\beamer@subsectionpages {46}{52}}
\headcommand {\beamer@sectionpages {46}{52}}
\headcommand {\beamer@documentpages {52}}
\headcommand {\def \inserttotalframenumber {13}}
