\relax 
\providecommand\hyper@newdestlabel[2]{}
\providecommand{\transparent@use}[1]{}
\providecommand\HyperFirstAtBeginDocument{\AtBeginDocument}
\HyperFirstAtBeginDocument{\ifx\hyper@anchor\@undefined
\global\let\oldcontentsline\contentsline
\gdef\contentsline#1#2#3#4{\oldcontentsline{#1}{#2}{#3}}
\global\let\oldnewlabel\newlabel
\gdef\newlabel#1#2{\newlabelxx{#1}#2}
\gdef\newlabelxx#1#2#3#4#5#6{\oldnewlabel{#1}{{#2}{#3}}}
\AtEndDocument{\ifx\hyper@anchor\@undefined
\let\contentsline\oldcontentsline
\let\newlabel\oldnewlabel
\fi}
\fi}
\global\let\hyper@last\relax 
\gdef\HyperFirstAtBeginDocument#1{#1}
\providecommand\HyField@AuxAddToFields[1]{}
\providecommand\HyField@AuxAddToCoFields[2]{}
\@writefile{toc}{\beamer@endinputifotherversion {3.36pt}}
\@writefile{nav}{\beamer@endinputifotherversion {3.36pt}}
\select@language{english}
\@writefile{toc}{\select@language{english}}
\@writefile{lof}{\select@language{english}}
\@writefile{lot}{\select@language{english}}
\@writefile{nav}{\headcommand {\slideentry {0}{0}{1}{1/1}{}{0}}}
\@writefile{nav}{\headcommand {\beamer@framepages {1}{1}}}
\@writefile{toc}{\beamer@sectionintoc {1}{Introduction}{2}{0}{1}}
\@writefile{nav}{\headcommand {\sectionentry {1}{Introduction}{2}{Introduction}{0}}}
\@writefile{nav}{\headcommand {\beamer@sectionpages {1}{1}}}
\@writefile{nav}{\headcommand {\beamer@subsectionpages {1}{1}}}
\@writefile{nav}{\headcommand {\slideentry {1}{0}{1}{2/3}{}{0}}}
\@writefile{nav}{\headcommand {\beamer@framepages {2}{3}}}
\@writefile{nav}{\headcommand {\slideentry {1}{0}{2}{4/5}{}{0}}}
\@writefile{nav}{\headcommand {\beamer@framepages {4}{5}}}
\@writefile{nav}{\headcommand {\slideentry {1}{0}{3}{6/11}{}{0}}}
\@writefile{nav}{\headcommand {\beamer@framepages {6}{11}}}
\@writefile{toc}{\beamer@sectionintoc {2}{Approximation Algorithms}{12}{0}{2}}
\@writefile{nav}{\headcommand {\sectionentry {2}{Approximation Algorithms}{12}{Approximation Algorithms}{0}}}
\@writefile{nav}{\headcommand {\beamer@sectionpages {2}{11}}}
\@writefile{nav}{\headcommand {\beamer@subsectionpages {2}{11}}}
\@writefile{nav}{\headcommand {\slideentry {2}{0}{1}{12/17}{}{0}}}
\@writefile{nav}{\headcommand {\beamer@framepages {12}{17}}}
\@writefile{nav}{\headcommand {\slideentry {2}{0}{2}{18/19}{}{0}}}
\@writefile{nav}{\headcommand {\beamer@framepages {18}{19}}}
\@writefile{nav}{\headcommand {\slideentry {2}{0}{3}{20/23}{}{0}}}
\@writefile{nav}{\headcommand {\beamer@framepages {20}{23}}}
\newlabel{theorem:alg_fr}{{5}{24}{}{Doc-Start}{}}
\@writefile{snm}{\beamer@slide {theorem:alg_fr}{24}}
\@writefile{nav}{\headcommand {\slideentry {2}{0}{4}{24/35}{}{0}}}
\@writefile{nav}{\headcommand {\beamer@framepages {24}{35}}}
\@writefile{nav}{\headcommand {\slideentry {2}{0}{5}{36/41}{}{0}}}
\@writefile{nav}{\headcommand {\beamer@framepages {36}{41}}}
\newlabel{theorem:alg_fr}{{6}{42}{}{Doc-Start}{}}
\@writefile{snm}{\beamer@slide {theorem:alg_fr}{42}}
\@writefile{nav}{\headcommand {\slideentry {2}{0}{6}{42/45}{}{0}}}
\@writefile{nav}{\headcommand {\beamer@framepages {42}{45}}}
\@writefile{toc}{\beamer@sectionintoc {3}{Experiments}{46}{0}{3}}
\@writefile{nav}{\headcommand {\sectionentry {3}{Experiments}{46}{Experiments}{0}}}
\@writefile{nav}{\headcommand {\beamer@sectionpages {12}{45}}}
\@writefile{nav}{\headcommand {\beamer@subsectionpages {12}{45}}}
\@writefile{nav}{\headcommand {\slideentry {3}{0}{1}{46/46}{}{0}}}
\@writefile{nav}{\headcommand {\beamer@framepages {46}{46}}}
\@writefile{nav}{\headcommand {\slideentry {3}{0}{2}{47/51}{}{0}}}
\@writefile{nav}{\headcommand {\beamer@framepages {47}{51}}}
\@writefile{nav}{\headcommand {\slideentry {3}{0}{3}{52/52}{}{0}}}
\@writefile{nav}{\headcommand {\beamer@framepages {52}{52}}}
\@writefile{nav}{\headcommand {\beamer@partpages {1}{52}}}
\@writefile{nav}{\headcommand {\beamer@subsectionpages {46}{52}}}
\@writefile{nav}{\headcommand {\beamer@sectionpages {46}{52}}}
\@writefile{nav}{\headcommand {\beamer@documentpages {52}}}
\@writefile{nav}{\headcommand {\def \inserttotalframenumber {13}}}
