\beamer@endinputifotherversion {3.36pt}
\select@language {english}
\beamer@sectionintoc {1}{Introduction}{2}{0}{1}
\beamer@sectionintoc {2}{Approximation Algorithms}{12}{0}{2}
\beamer@sectionintoc {3}{Experiments}{46}{0}{3}
