This is BibTeX, Version 0.99dThe top-level auxiliary file: eurocg18-short-abstract.aux
I found no \citation commands---while reading file eurocg18-short-abstract.aux
I found no \bibdata command---while reading file eurocg18-short-abstract.aux
I found no \bibstyle command---while reading file eurocg18-short-abstract.aux
(There were 3 error messages)
